{
  "project_info": {
    "project_number": "510274107540",
    "firebase_url": "https://kilomart-7b787.firebaseio.com",
    "project_id": "kilomart-7b787",
    "storage_bucket": "kilomart-7b787.appspot.com"
  },
  "client": [
    {
      "client_info": {
        "mobilesdk_app_id": "1:510274107540:android:5efe61fb197f16f8921c81",
        "android_client_info": {
          "package_name": "com.innasoft.kilomart"
        }
      },
      "oauth_client": [
        {
          "client_id": "510274107540-jcv9l3vs3v503s662bi94gpijd9numpu.apps.googleusercontent.com",
          "client_type": 3
        }
      ],
      "api_key": [
        {
          "current_key": "AIzaSyAGiF8SVw4KctRWAp1_DRF_JuPiGHId1LU"
        }
      ],
      "services": {
        "appinvite_service": {
          "other_platform_oauth_client": [
            {
              "client_id": "510274107540-jcv9l3vs3v503s662bi94gpijd9numpu.apps.googleusercontent.com",
              "client_type": 3
            }
          ]
        }
      }
    }
  ],
  "configuration_version": "1"
}